{
  "type": "service_account",
  "project_id": "babufcmdemo",
  "private_key_id": "4bd86c9afa7e1481638c4843be4bbfcc6049ac08",
  "private_key": "-----BEGIN PRIVATE KEY-----\nMIIEvQIBADANBgkqhkiG9w0BAQEFAASCBKcwggSjAgEAAoIBAQC/g8xSk18dfCif\n16eYapq0FG4Mu3QydL6luNFmTdq0IC+jiL0ru+kA2/4Ym6AI9rEQVHPd9rjR+xhg\nsPiydisfSVE+rOcojHM5e/o5Xif9NUrKIgNWi1AjJeFJw55fXzogcGuRcgoY0/nw\n+yjv8zDDWglVzRI5gpwTmwSYN8G17TUGcuqRl+m0/8Skd/Ej/ErXXIQ5Ro6sxGD3\nUQ3XjXe6igJPcxseVGfl66hbb/7QYD4rtG28aolArQywXNIhcGfXZSXnSOZPO52d\nSe4M8XraKrTQv26uGRE4YN7yNYU+R+EskwLKXzzQEt41erKtzVp6h+44KlZPsmR7\nh/m4EL87AgMBAAECggEAUIwSpdJEqUZ8YYnWe6Subzm+dU1r2ALA4jtimqf46VQ2\nJQ4QHfI407sy2c+uVcbHfqo+Vyb64Zm9TYFw/8HybgSsjnMy/5tepNkvSux+XiEJ\nVQ1MIRyTtkyqvZbwJ4WKEXWm0DPJ6lpRH1jLBWxfYHIgRf1rglOb6CUFIC4nIyen\n15opYv7B262oeMb9yMGiu5fOQqry9UxligKNuDYoq213/JyNgusDgisIGGzlWumL\nmDlWjlKaI9pzVVs1zQ2q6H04xRfJL1hHvZYBs3oOHZy7wtjEsh8SKgTly7b9Tl3h\nNlvLn7uCoK5Q5g11/EvvqF3dNm7Ql32XsvbhSWa7MQKBgQDq1LTBOZ7tmSexh8cV\nW2QTTgomAdDtaUhESU9KEf3kTJmUiaciEOcPds7JeIg/FETycLQEZFv5Ma3eQzfL\noH7IXFrS1zM4CnVvwTALoUd2UroyoPRiVudaX7E5Nm6ONmwuHZcOhbIebi/0ShU9\n6WQ5BDpwSc1X2/VMGgeW5P5MEQKBgQDQx3gKNcKdxSX7kFh42pqlUHLQ1yF4AW6z\nwhANOHkuCkIcGwsFWXzx2a3IiAj34DCnFy1uRjMt+0FMYXvMZKF4kF5CV5b54f7n\nE0IVVxlR6YOGsyJVRdoIFangeOAqsv7JlWBYMGssTYKDC8++WwGDdmjIbd+CI4di\nDfjrM6BSiwKBgQDB1txxly+h7sc+GtbxwSOlb8iewOcF4d7+RwlFGf7agYRQgSPN\n0ef48tgUpALLFt8mxHNEINduplxf2FppIk0k9F8gJPUpcDCqE+yl3PYRLI54FjZE\nKnoENnMix9SQXUoE8vXqzd9OkSPSYYiRN2M8UUovwCvZNz6PF/llzBZBEQKBgBdz\nIA99hFN2LlL4HofMfewtggfk8fRprMZx+J2Th0DdlBlWDEHYkEkV2wgYB3HX838B\nAnBNYDg87VOn62DEuMIy7PNkpSeB88B+kECXXNevc79wZV3Qj7GyxTbaPMtu+WEo\n7v5YyeDa/9q6O+Y0kJH0fcZtWNpkJTOlQB0i2lILAoGAAThsZULIRdkkRRa5ErA6\nNKHul89fSHCs++snXbMxsODX505PUFnXFWYJVub9HuduARli0531FDI2andDWRF+\nq8ltU3O9iNnB7lapXUei/m7e2n9NvtETqGMXvmdMrw3U9TWjHd2b6Rp8T+k1EMF8\n/P/CekmIN5CDr9KzKSOmqwo=\n-----END PRIVATE KEY-----\n",
  "client_email": "firebase-adminsdk-en9s8@babufcmdemo.iam.gserviceaccount.com",
  "client_id": "101032435764720062865",
  "auth_uri": "https://accounts.google.com/o/oauth2/auth",
  "token_uri": "https://oauth2.googleapis.com/token",
  "auth_provider_x509_cert_url": "https://www.googleapis.com/oauth2/v1/certs",
  "client_x509_cert_url": "https://www.googleapis.com/robot/v1/metadata/x509/firebase-adminsdk-en9s8%40babufcmdemo.iam.gserviceaccount.com"
}
